%YAML 1.1
%TAG !u! tag:unity3d.com,2011:
--- !u!1045 &1
EditorBuildSettings:
  m_ObjectHideFlags: 0
  serializedVersion: 2
  m_Scenes:
  - enabled: 1
    path: Assets/Scenes/SplashScene.unity
    guid: 2cda990e2423bbf4892e6590ba056729
  - enabled: 1
    path: Assets/Scenes/Title.unity
    guid: c2127ba82003c9249ab10cfe8f12590f
  - enabled: 1
    path: Assets/Scenes/Course1.unity
    guid: 7956be515ca58904fab48bc6fc8fa4d5
  - enabled: 1
    path: Assets/Scenes/Course2.unity
    guid: 7d1c024b2c3f79347b2195f8114f780a
  - enabled: 1
    path: Assets/Scenes/Continue.unity
    guid: 612baeed2aaf826428d9e1e0a7fadf44
  - enabled: 1
    path: Assets/Scenes/Information.unity
    guid: c0ad26d342c0a084ebaee71cac7d6a81
  m_configObjects: {}
